Mitgliedsnummer;Benutzernummer
23;121
40;20
56;61
57;176
89;76
126;29
154;243
330;450
427;700
508;211
549;1046
740;1203
810;1301
941;1361
1078;1528
1138;1666
1172;1728
1224;1754
1324;1473
1339;1980
1383;1456
1397;2037
1431;2138
1458;2288
1461;2238
1472;2314
1506;3274
1560;3504
1570;3595
1580;3533
1608;4281
1615;2755
1616;349
